<?xml version="1.0" encoding="utf-8"?>
<!-- Generator: Adobe Illustrator 24.1.2, SVG Export Plug-In . SVG Version: 6.00 Build 0)  -->
<svg version="1.1" id="Layer_1" xmlns="http://www.w3.org/2000/svg" xmlns:xlink="http://www.w3.org/1999/xlink" x="0px" y="0px"
	 viewBox="0 0 394.9 794.5" style="enable-background:new 0 0 394.9 794.5;" xml:space="preserve">
<style type="text/css">
	.st0{opacity:0.3;fill:#6D6E71;}
</style>
<path class="st0" d="M1211.5,1550.5c-1.6-2-4.3-2.7-6.6-1.8l-26.3-95.4c1.2-0.3,2.4-0.8,3.5-1.7c3.6-2.9,4.2-8.2,1.3-11.8
	c-2.5-3.1-6.7-3.9-10.1-2.3l-34.3-85.1c0.9-0.3,1.8-0.8,2.6-1.4c3.6-2.9,4.2-8.2,1.3-11.8c-2.9-3.6-8.2-4.2-11.8-1.3
	c-0.8,0.7-1.5,1.5-2,2.4l-27.2-18.6c1.8-2.1,1.9-5.3,0.1-7.5c-2-2.5-5.6-2.9-8.1-1l-66.3-108.1c0.5-0.3,1-0.6,1.4-0.9
	c3.6-2.9,4.2-8.2,1.3-11.8c-2.9-3.6-8.2-4.2-11.8-1.3c-0.3,0.2-0.5,0.5-0.8,0.7l-50.7-56.8c0.1-0.1,0.2-0.1,0.3-0.2
	c2.5-2,2.9-5.7,0.9-8.3c-2-2.5-5.7-2.9-8.3-0.9c-0.6,0.5-1,1-1.4,1.6l-35.2-26.6c2-2.1,2.2-5.4,0.3-7.7c-1.8-2.3-5.1-2.8-7.5-1.4
	l-65.4-141.3c0.6-0.2,1.2-0.5,1.7-1c2.5-2,2.9-5.7,0.9-8.3c-2-2.5-5.7-2.9-8.3-0.9c-2.3,1.9-2.8,5.2-1.3,7.6l-145.2,85
	c-0.2-0.4-0.5-0.8-0.8-1.1c-2.9-3.6-8.2-4.2-11.8-1.3c-3.6,2.9-4.2,8.2-1.3,11.8c2.5,3.1,6.9,4,10.3,2.2l28.4,40.8
	c-2.4,2.1-2.7,5.6-0.7,8.1c2,2.5,5.6,2.9,8.2,1l23.1,24.3l-82.8-20.5c0.4-1.8-0.1-3.8-1.5-5.2c-1.1-1.2-2.5-1.8-4.1-1.8
	c-1.6,0-3.1,0.5-4.2,1.6c-0.7,0.6-1.1,1.4-1.4,2.2l-106-34.3c0.1-0.5,0.2-0.9,0.2-1.4c0-1.6-0.5-3.1-1.6-4.2
	c-1.1-1.2-2.5-1.8-4.1-1.8c-0.3,0-0.5,0-0.8,0.1l-9.2-58.9c1.1-0.2,2.1-0.7,2.9-1.5c2.3-2.2,2.4-6,0.2-8.3c-1.3-1.3-3-1.9-4.6-1.8
	l-9.2-84.3c1.1-0.2,2.3-0.7,3.2-1.5c2.3-2.2,2.4-6,0.2-8.3c-1.2-1.3-2.9-1.9-4.5-1.8l-6.5-74.7c1.2-0.2,2.4-0.7,3.3-1.6
	c2.3-2.2,2.4-6,0.2-8.3c-2.2-2.3-6-2.4-8.3-0.2l0,0c-1.4,1.3-2,3.1-1.8,4.9l-97.3,14.8c-0.2-1.1-0.7-2.1-1.5-2.9
	c-2.2-2.3-6-2.4-8.3-0.2l0,0c-1.1,1.1-1.8,2.5-1.8,4.1c0,0.2,0,0.4,0,0.7l-43.4,5.8l13-38c0.3,0.1,0.6,0.2,1,0.2
	c3.3,0.4,6.3-2,6.7-5.3c0.4-3.3-2-6.3-5.3-6.7c-1.9-0.2-3.7,0.5-4.9,1.7l-103.7-96.5c0.7-0.9,1.2-2,1.4-3.2c0.4-3.3-2-6.3-5.3-6.7
	c-0.1,0-0.2,0-0.3,0l1.1-40.7c3-0.1,5.5-2.3,5.9-5.3c0.4-3.3-2-6.3-5.3-6.7c-3.3-0.4-6.3,2-6.7,5.3c-0.1,1.1,0,2.1,0.5,3.1
	l-57.3,27.9c-1.4-2.7-4.2-4.8-7.5-5.2c-2.5-0.3-4.9,0.4-6.8,1.7l-83.8-111.2c1.9-1.5,3.3-3.8,3.6-6.4c0.6-5.3-3.2-10.2-8.5-10.8
	c0,0,0,0,0,0l11.6-132.8c5.1,0.3,9.6-3.4,10.2-8.6c0.6-5.3-3.2-10.2-8.5-10.8c-3-0.4-5.9,0.7-7.9,2.6L-17.7,256.3
	c0.8-0.9,1.4-2,1.5-3.3c0.3-2.2-0.7-4.3-2.4-5.6l5.1-7.8c0.7,0.4,1.5,0.7,2.4,0.8c3.3,0.4,6.3-2,6.7-5.3c0.2-1.4-0.2-2.8-0.9-3.9
	l31.9-21.9c1,1.3,2.4,2.2,4.1,2.4c3.3,0.4,6.3-2,6.7-5.3c0.4-3.3-2-6.3-5.3-6.7c-1.2-0.1-2.3,0.1-3.3,0.6L6.9,159.6
	c1.5-0.9,2.7-2.5,2.9-4.5c0.3-2.3-0.8-4.5-2.6-5.7l23.7-39c0.7,0.4,1.4,0.6,2.2,0.7c3.3,0.4,6.3-2,6.7-5.3c0.1-0.8,0-1.6-0.2-2.3
	l43.5-13.8c0.8,2.1,2.6,3.6,4.9,3.9c3.3,0.4,6.3-2,6.7-5.3s-2-6.3-5.3-6.7c-1.6-0.2-3,0.2-4.2,1.1L50.9,39.1c1.1-0.9,1.9-2.3,2-3.8
	c0.4-3.3-2-6.3-5.3-6.7c-3.3-0.4-6.3,2-6.7,5.3c0,0.2,0,0.4,0,0.5L-52.9,36c0.1-3.1-2.2-5.8-5.3-6.1c-3.3-0.4-6.3,2-6.7,5.3
	c-0.4,3.3,2,6.3,5.3,6.7c1.7,0.2,3.3-0.3,4.5-1.3l45,44c-1.3,1.5-2.3,3.3-2.5,5.4c-0.2,1.6,0,3.2,0.6,4.6L-166,158
	c-1.4-3-4.2-5.3-7.7-5.7c-5.3-0.6-10.2,3.2-10.8,8.5c-0.6,5.3,3.2,10.2,8.5,10.8c0.5,0.1,1,0.1,1.5,0.1l7.4,115.1
	c-2.7,0.3-5,2.4-5.3,5.3c-0.4,3.3,2,6.3,5.3,6.7c3,0.4,5.7-1.5,6.5-4.3l30.4,7.1c0,0.1-0.1,0.3-0.1,0.4c-0.4,3.3,2,6.3,5.3,6.7
	c2.7,0.3,5.2-1.2,6.2-3.6l7.1,2.7c-0.1,0.4-0.2,0.8-0.3,1.2c-0.4,3.3,2,6.3,5.3,6.7c1.6,0.2,3-0.2,4.2-1.1L-12,429.4
	c-1.8,1.5-3.1,3.7-3.4,6.3c-0.6,4.8,2.5,9.2,7,10.5l-40.4,158.4c-0.3-0.1-0.6-0.1-1-0.2c-5.3-0.6-10.2,3.2-10.8,8.5
	c-0.3,2.8,0.5,5.4,2.2,7.4l-122.5,108.2c-0.9-1-2.2-1.6-3.6-1.8c-3.3-0.4-6.3,2-6.7,5.3c-0.4,3.3,2,6.3,5.3,6.7
	c3.3,0.4,6.3-2,6.7-5.3c0.1-0.8,0-1.6-0.2-2.4l103.8-35.3c0.8,2,2.6,3.5,4.9,3.8c0.9,0.1,1.9,0,2.7-0.3l58.6,145.4
	c-1.8,0.8-3.2,2.6-3.5,4.8c-0.4,3.3,2,6.3,5.3,6.7c2.4,0.3,4.7-0.9,5.9-2.9l79.7,43.5c-0.3,0.6-0.5,1.2-0.6,1.9
	c-0.4,3.3,2,6.3,5.3,6.7c1.7,0.2,3.3-0.3,4.5-1.3l97.2,108.5c-0.3,0.6-0.6,1.4-0.7,2.1c-0.4,3.3,2,6.3,5.3,6.7
	c0.7,0.1,1.4,0,2.1-0.1l64.6,116.8c-2.5,1.5-4.3,4.1-4.7,7.2c-0.6,5.3,3.2,10.2,8.5,10.8c0.8,0.1,1.6,0.1,2.3,0l5.7,38.3
	c-2.5,0.5-4.5,2.5-4.8,5.2c-0.4,3.3,2,6.3,5.3,6.7c3.3,0.4,6.3-2,6.7-5.3c0.2-1.9-0.5-3.7-1.7-4.9l80.1-86.4c0.9,0.7,2,1.2,3.2,1.4
	c3.3,0.4,6.3-2,6.7-5.3c0.4-3.3-2-6.3-5.3-6.7c-0.9-0.1-1.8,0-2.6,0.3l-31-82l19.1,17.2c-0.8,1-1.3,2.3-1.3,3.6
	c0,1.6,0.5,3.1,1.6,4.2c0.1,0.1,0.1,0.1,0.2,0.2c1.1,1,2.5,1.6,3.9,1.6c1.6,0,3.1-0.5,4.2-1.6c0.2-0.2,0.3-0.3,0.4-0.5l59.6,45.6
	c-1.6,2.2-1.4,5.4,0.6,7.4c0.1,0.1,0.1,0.1,0.2,0.2c2.3,2.2,5.8,2.2,8.1,0c0.6-0.6,1.1-1.3,1.4-2l159.8,57.6c-0.6,2-0.2,4.2,1.4,5.8
	c0.1,0.1,0.1,0.1,0.2,0.2c1.6,1.6,4,2,6,1.3l4.7,11.7c-0.6,0.3-1.2,0.6-1.6,1.1c-1.1,1.1-1.8,2.5-1.8,4.1c0,1.6,0.5,3.1,1.6,4.2
	c0.1,0.1,0.1,0.1,0.2,0.2c1.1,1,2.5,1.6,3.9,1.6c1.5,0,3-0.5,4.1-1.5l128.8,129.1c-1,1-1.5,2.4-1.5,3.8c0,1.6,0.5,3.1,1.6,4.2
	c0.1,0.1,0.1,0.1,0.2,0.2c1.1,1,2.5,1.6,3.9,1.6c1.6,0,3.1-0.5,4.2-1.6c1.1-1.1,1.8-2.5,1.8-4.1c0-1.1-0.3-2.2-0.8-3.1l90.6-58.3
	c0.2,0.2,0.3,0.5,0.5,0.7c0.1,0.1,0.1,0.1,0.2,0.2c2.3,2.2,5.8,2.2,8.1,0c2.3-2.2,2.4-6,0.2-8.3c-1.1-1.2-2.5-1.8-4.1-1.8
	c-0.2,0-0.4,0-0.6,0l-6.9-58l48.3,42.2c-1.9,3-1.8,6.9,0.5,9.8c2.9,3.6,8.2,4.2,11.8,1.3c0.5-0.4,1-0.9,1.4-1.4l93.7,52.6
	c-0.6,1.8-0.3,3.9,1,5.5c1.4,1.7,3.5,2.4,5.5,2.1l30.5,89c-0.3,0.2-0.6,0.3-0.9,0.6c-2.5,2-2.9,5.7-0.9,8.3c2,2.5,5.7,2.9,8.3,0.9
	c0.7-0.6,1.2-1.2,1.6-2l85.5,23.4c-0.1,1.4,0.3,2.9,1.3,4.1c0.9,1.1,2.1,1.8,3.4,2.1l-10.5,125.2c-1.2,0.1-2.4,0.5-3.4,1.3
	c-2.5,2-2.9,5.7-0.9,8.3c1.3,1.7,3.4,2.4,5.4,2.1l15.7,48.8c-0.3,0.2-0.7,0.4-1,0.6c-2.5,2-2.9,5.7-0.9,8.3c2,2.5,5.7,2.9,8.3,0.9
	c2.3-1.9,2.8-5.1,1.3-7.6l70.7-51.9c2.1,2.3,5.6,2.7,8.1,0.7C1213.1,1556.8,1213.5,1553,1211.5,1550.5z M1201,1554.6l-84.9-0.9
	l-2.8,0c0.1-1.5-0.3-3-1.3-4.2c-0.4-0.5-0.8-0.8-1.2-1.1l61.7-96.1c1.7,1,3.7,1.4,5.6,1.1l26.3,95.5c-0.4,0.2-0.8,0.4-1.2,0.7
	C1201.6,1550.9,1200.9,1552.8,1201,1554.6z M1172.8,1437.8c-0.4,0.2-0.8,0.5-1.2,0.8c-1.2,0.9-2,2.1-2.5,3.4l-45.2-22.4
	c1.3-2.1,1.3-4.8-0.4-6.9c-0.9-1.1-2-1.8-3.3-2l2.5-10.5l11.5-47.6c1.4,0.3,2.8,0.3,4.2,0L1172.8,1437.8z M1128.8,1340.8
	c-1.4,2.8-1.1,6.4,1,9c1.1,1.3,2.5,2.2,4,2.7l-14,58.1c-0.8-0.1-1.6,0-2.4,0.2l-19-87.1c1-0.1,2-0.5,2.9-1.2
	c0.1-0.1,0.3-0.2,0.4-0.3L1128.8,1340.8z M1093.5,1313.5c-1,0.9-1.7,2.2-1.8,3.5l-61.7-15.7l-36.3-9.2c0.7-1.9,0.4-4-0.9-5.7
	c-0.7-0.8-1.5-1.4-2.4-1.8l30.5-79.2c2,0.8,4.3,0.7,6.4-0.2L1093.5,1313.5z M734.8,1306.5c-0.3-0.1-0.7-0.1-1-0.1
	c-1.5,0-3,0.5-4.1,1.5l-128.8-129.1c1-1,1.5-2.4,1.5-3.8c0-0.5-0.1-1-0.2-1.4l25.1-6.8l132.2-36c0.2,0.4,0.4,0.7,0.7,1
	c2,2.5,5.6,2.9,8.1,1l7.5,6.6L750.6,1242L734.8,1306.5z M190.6,1009.4l27.2-228.5c1.6,0.1,3.1-0.1,4.5-0.7l21.9,50.1l-10.2-1.9
	c0.2-1.7-0.3-3.5-1.6-4.9c-1.1-1.2-2.5-1.8-4.1-1.8c-1.6,0-3.1,0.5-4.2,1.6c-1.1,1.1-1.8,2.5-1.8,4.1c0,1.6,0.5,3.1,1.6,4.2
	c0.1,0.1,0.1,0.1,0.2,0.2c1.4,1.4,3.4,1.9,5.2,1.5l29.2,120.2c-0.9,0.3-1.7,0.7-2.4,1.4l0,0c-2.3,2.2-2.4,6-0.2,8.3
	c0.1,0.1,0.1,0.1,0.2,0.2c2.3,2.2,5.8,2.2,8.1,0c0,0,0.1-0.1,0.1-0.1l24.4,21.9l-93.1,29.9C195.7,1012.4,193.6,1009.8,190.6,1009.4z
	 M91.9,543.4l-9.1,12.7l-45.2,63.1c-0.7-0.5-1.6-0.8-2.6-0.9c-3.2-0.4-6.1,1.8-6.6,5l-69.7-8.3c0.2-1.8-0.2-3.6-1-5.2l131.5-69.3
	C90,541.6,90.9,542.6,91.9,543.4z M660.2,1099.5c0.2,0.5,0.6,0.9,0.9,1.3c0.1,0.1,0.1,0.1,0.2,0.2l-61.1,69.3
	c-0.5-0.4-1.1-0.7-1.6-0.9l13.7-42.7c1.9,0.5,4.1,0.1,5.6-1.4c1.8-1.7,2.3-4.3,1.4-6.5l23.7-11.1L660.2,1099.5z M609.3,1117.2
	c-0.4,0.4-0.7,0.9-0.9,1.4l-9.5-3.8l-30.2-12.2c0.7-2,0.3-4.4-1.3-6c-1.6-1.7-3.9-2.2-6-1.6l-11-30.8c0.7-0.3,1.3-0.7,1.8-1.2
	c0,0,0,0,0,0l41,38.9L609.3,1117.2z M232.3,832c0.9-0.8,1.4-1.9,1.7-2.9l10.5,1.9l29.7,68.1l-12.9,54.6c-0.7-0.1-1.5-0.1-2.2,0
	l-29.2-120.2C230.8,833.1,231.6,832.7,232.3,832z M300.7,974.6l-35-13.4c0.7-2,0.2-4.3-1.3-5.9c-0.7-0.8-1.7-1.3-2.7-1.6l12.7-53.9
	l30.7,70.5C303.3,971.2,301.7,972.7,300.7,974.6z M319,980.2c0.5-4.5-2.2-8.7-6.3-10.3l14.6-42.6l27.6,62.7c-0.7,0.3-1.4,0.7-2,1.2
	c-0.8,0.7-1.3,1.6-1.6,2.6l-32.6-12.5C318.8,981.1,318.9,980.7,319,980.2z M511.7,1012.8c0.9-0.1,1.8-0.4,2.6-0.9l30.2,42.4
	c-0.2,0.1-0.3,0.2-0.5,0.4c-0.7,0.7-1.2,1.5-1.5,2.3l-23.6-7.1c0.5-1.9,0-4-1.4-5.5c-1.2-1.2-2.7-1.8-4.3-1.8l-0.7-13.4
	L511.7,1012.8z M518.9,1050.4l23.6,7.1c-0.1,0.4-0.2,0.8-0.2,1.3c0,1.6,0.5,3.1,1.6,4.2c0.1,0.1,0.1,0.1,0.2,0.2
	c1.1,1,2.5,1.6,3.9,1.6c0.6,0,1.3-0.1,1.9-0.3l3.4,9.4l7.6,21.4c-0.6,0.2-1.1,0.6-1.6,1l-41.7-43.8
	C518.2,1051.9,518.6,1051.2,518.9,1050.4z M362.9,995.7c0,0,0-0.1,0-0.1l99.2-32.3c0.1,0.1,0.1,0.3,0.2,0.4l-37.8,19.8l-39.1,20.5
	c-0.2-0.4-0.5-0.8-0.8-1.1c-1.1-1.1-2.5-1.8-4.1-1.8c-1.6,0-3.1,0.5-4.2,1.6c-0.5,0.5-0.9,1-1.2,1.6l-12.9-5.9
	C362.6,997.6,362.9,996.7,362.9,995.7z M386.2,1007.1c0-0.9-0.2-1.8-0.6-2.6l76.9-40.3c0.2,0.3,0.4,0.6,0.7,0.9l-6,5.7l-41,39.1
	c-2.2-2.1-5.8-2.2-8.1,0l0,0c-0.8,0.8-1.3,1.7-1.6,2.7l-20.3-4.6C386.1,1007.7,386.2,1007.4,386.2,1007.1z M361.1,999.8
	c0.3-0.3,0.6-0.6,0.8-1l5.8,2.7l7.2,3.3c-0.3,0.6-0.4,1.3-0.4,2.1c0,1.5,0.5,2.9,1.5,4l-24.2,23c-0.7-0.7-1.5-1.1-2.4-1.4l8-31
	C358.7,1001.3,360,1000.8,361.1,999.8z M506.9,1002.8c-1.1,1.2-1.7,2.7-1.6,4.2l-87.4,6.3c-0.1-1.1-0.6-2.3-1.4-3.2l47-44.8
	c1.1,1,2.4,1.6,3.9,1.6c1.5,0,2.9-0.5,4-1.5l23.5,24.6L506.9,1002.8z M408.9,828.2c0.4,0.1,0.8,0.2,1.3,0.2c0.7,0,1.5-0.1,2.1-0.4
	l40.6,98.2l12.2,29.6c-0.6,0.3-1.1,0.6-1.6,1.1l0,0c-1.1,1.1-1.8,2.5-1.8,4.1c0,0.6,0.1,1.2,0.2,1.7l-99.1,32.3
	c-0.1-1.3-0.6-2.6-1.6-3.5c-0.3-0.3-0.6-0.6-0.9-0.8l28.9-96.9L408.9,828.2z M327,926.6l-14.8,43.2c-0.6-0.2-1.1-0.3-1.7-0.4
	c-1.7-0.2-3.3,0-4.8,0.6l-30.4-69.7l-0.6-1.5l12.8-54.4c1.1,0.2,2.2,0.1,3.2-0.3l29.3,66.5L327,926.6z M73.9,768.5
	c-0.9-1-2.2-1.6-3.6-1.8c-1.7-0.2-3.3,0.3-4.6,1.4l-4.1-4.5L44,744.5c0.9-0.9,1.5-2.1,1.7-3.5c0.1-1.1-0.1-2.2-0.5-3.2l139.4-70.7
	c0.3,0.6,0.7,1.1,1.1,1.6l-10.6,9.4L73.9,768.5z M-32.5,660.6c-0.9-1.5-2.5-2.6-4.4-2.8c-0.7-0.1-1.4,0-2,0.1l-9.2-34.5
	c3.5-1.1,6.3-4.1,6.8-7.9l69.7,8.3c-0.1,1.1,0.1,2.2,0.6,3.1l-6.3,3.5L-32.5,660.6z M-33.2,667.8c0.8-0.9,1.4-2,1.5-3.3
	c0.1-1.2-0.1-2.4-0.6-3.4L20,632.5l9.3-5.1c0.9,1.5,2.5,2.6,4.4,2.8c0.2,0,0.5,0,0.7,0l4.8,104c-1.3,0.1-2.6,0.7-3.5,1.6l-11.8-11.7
	L-33.2,667.8z M-58.4,677c3.3,0.4,6.3-2,6.7-5.3c0.1-0.9,0-1.7-0.2-2.5l8.8-3.2c0.2,0.6,0.6,1.1,1,1.6l-23.5,21.7
	c-0.3-0.3-0.7-0.6-1.1-0.9l6.5-12C-59.7,676.7-59.1,676.9-58.4,677z M-64,694.3c0.2-1.7-0.3-3.3-1.4-4.6l23.5-21.7
	c0.9,0.9,2.1,1.5,3.5,1.7c1.8,0.2,3.5-0.4,4.8-1.6l7.5,7.4l61.4,60.7c-0.4,0.4-0.7,0.9-1,1.4l-98.7-42
	C-64.2,695.2-64.1,694.7-64,694.3z M183.7,660.4c-0.1,0.3-0.1,0.6-0.1,0.9c-0.2,1.9,0.1,3.7,0.9,5.3L53.2,733.2l-8.2,4.2
	c-0.9-1.6-2.5-2.8-4.5-3c-0.2,0-0.5,0-0.7,0l-4.8-104c2.4-0.2,4.5-1.9,5.2-4.3l86.6,20.8L183.7,660.4z M-51.8,623.8
	c1.1,0.1,2.1,0,3.1-0.2l9.2,34.5c-2.2,0.7-3.9,2.6-4.2,5c-0.1,0.9,0,1.7,0.2,2.5l-8.8,3.2c-0.8-1.9-2.5-3.3-4.6-3.6l3.5-29
	L-51.8,623.8z M75.6,772.3c-0.1-1.3-0.6-2.5-1.3-3.5l65-58l46.9-41.8c1.5,1.6,3.6,2.7,5.9,3c1.1,0.1,2.1,0.1,3.1-0.1l21.1,89.8
	c-3.7,1-6.7,4.2-7.2,8.3c0,0.3-0.1,0.6-0.1,1l-86.7,0.8L75.6,772.3z M264.7,963.1c0.4-0.4,0.6-0.9,0.9-1.4l34.9,13.3
	c-0.4,0.9-0.7,1.9-0.8,2.9c-0.2,1.3,0,2.6,0.3,3.9l-10.7,3.4L264.7,963.1z M417.7,1015.7c0.2-0.6,0.2-1.2,0.2-1.8l87.4-6.3
	c0.1,1.2,0.7,2.4,1.6,3.4c0.1,0.1,0.1,0.1,0.2,0.2c1.1,1.1,2.6,1.6,4.1,1.6l1.6,29.8c-1.3,0.1-2.5,0.6-3.5,1.6l0,0
	c-0.6,0.6-1.1,1.3-1.4,2.1l-11.8-4L417.7,1015.7z M508.1,1051.1c0.3,0.5,0.6,1,1,1.5c0.1,0.1,0.1,0.1,0.2,0.2c1.1,1,2.5,1.6,3.9,1.6
	c1.5,0,2.9-0.5,4-1.5l0.1,0.1l41.6,43.7c-0.9,1-1.5,2.2-1.6,3.4l-134.9-9.1c0-0.8-0.1-1.5-0.4-2.3l31.2-13.6L508.1,1051.1z
	 M565.9,1105.9c0.5-0.3,0.9-0.5,1.3-0.9c0.6-0.5,1-1.2,1.3-1.8l36.1,14.5l3.6,1.5c-0.7,2-0.3,4.4,1.3,6c0.1,0.1,0.1,0.1,0.2,0.2
	c0,0,0.1,0.1,0.1,0.1l-18.7,22.3c-1-0.8-2.2-1.2-3.4-1.2c-0.8,0-1.6,0.1-2.4,0.5l-1.2-2.6L565.9,1105.9z M545,1053.9l-30.2-42.4
	c0.1-0.1,0.3-0.2,0.4-0.4c2.1-2,2.4-5.1,0.9-7.5l1.6-1.1l14.9-10.6c0.1,0.1,0.2,0.3,0.4,0.4c0.1,0.1,0.1,0.1,0.2,0.2
	c1.3,1.3,3,1.8,4.7,1.6l9.2,58.9C546.3,1053.3,545.6,1053.5,545,1053.9z M531.6,986.5c-0.6,1.7-0.4,3.6,0.6,5.1l-9.7,6.9l-6.7,4.8
	c-0.1-0.1-0.2-0.3-0.4-0.4c-2.2-2.3-5.8-2.4-8.1-0.4l-11.6-12.2l-23.9-25c0.5-0.5,0.9-1.1,1.1-1.7l47,18.4L531.6,986.5z
	 M471.2,956.6c-1.6-1.3-3.8-1.6-5.6-0.9l-52.8-127.8c0.6-0.3,1.1-0.6,1.6-1.1c0.3-0.3,0.6-0.7,0.8-1l106.3,63.8
	c-1.2,2.2-0.9,5,0.9,6.9c0.1,0.1,0.1,0.1,0.2,0.2c0,0,0,0,0.1,0l-31.9,37.1L471.2,956.6z M309,884.4L291.2,844c0.5-0.3,1-0.6,1.5-1
	c1.3-1.3,1.9-3.1,1.8-4.8l65.8-8.8l-33,96.4L309,884.4z M284.4,842.8c0.1,0.1,0.1,0.1,0.2,0.2c0.7,0.7,1.6,1.2,2.5,1.4l-4.9,20.9
	l-7.7,32.8l-29.2-67l37.7,6.9C282.6,839.7,283.1,841.5,284.4,842.8z M257.3,679.2c0,0.2-0.1,0.3-0.1,0.5c-0.3,2.5,1,4.8,3.1,6
	l-5.3,10.8l-32.3,65.9c-0.9-0.4-1.9-0.7-2.9-0.8c-1.1-0.1-2.1-0.1-3.1,0.1l-10.3-43.8l-10.8-46c3.3-0.9,5.9-3.4,6.9-6.7l11.8,3
	L257.3,679.2z M37.7,745.9c0.4,0.2,0.9,0.3,1.4,0.3c1.7,0.2,3.3-0.3,4.6-1.4l21.7,23.5c-0.9,0.9-1.5,2.1-1.7,3.5
	c-0.2,1.8,0.4,3.5,1.6,4.8l-68.1,68.9c-0.4-0.4-0.9-0.7-1.4-1l26.1-61.3L37.7,745.9z M70.5,778.6c2.6-0.4,4.7-2.5,5.1-5.2
	c0-0.2,0-0.3,0-0.5l57.3-0.6l76.1-0.7c0.1,2.3,1,4.5,2.5,6.1l-88,83.2l-36,34.1c-0.9-0.9-2.1-1.5-3.5-1.7c-0.4,0-0.7,0-1.1,0
	l-0.9-8.3L70.5,778.6z M300.2,982.3c1,2.8,3.3,5.1,6.2,6l-2.8,9.7l-13.7-12.4L300.2,982.3z M306.9,988.5c0.4,0.1,0.9,0.2,1.3,0.3
	c1.5,0.2,3,0,4.3-0.5l10.2,27L304,998.4L306.9,988.5z M353,1035.8c-0.2-0.6-0.6-1.1-1-1.6l24.2-23c1.1,1,2.4,1.6,3.9,1.6
	c1.6,0,3.1-0.5,4.2-1.6c0.8-0.8,1.3-1.7,1.6-2.7l20.3,4.6c-0.2,0.9-0.1,1.9,0.2,2.8l-8.1,3L353,1035.8z M412.7,1019.9
	c1.3-0.1,2.5-0.7,3.5-1.6c0.6-0.6,1.1-1.3,1.4-2.1l64,21.7l26.2,8.9c-0.4,1.2-0.3,2.6,0.2,3.8l-27.5,12l-58.6,25.6
	c-0.3-0.5-0.6-1-1-1.5c-1.2-1.2-2.8-1.8-4.3-1.8l-0.7-12.5L412.7,1019.9z M844.6,948.9c0.4,0.4,0.9,0.7,1.4,1l-45.1,117.7l-1.4-3.7
	c0.6-0.3,1.2-0.6,1.7-1.1c2.3-2.2,2.4-6,0.2-8.3c-2.2-2.3-6-2.4-8.3-0.2c-2.3,2.2-2.4,6-0.2,8.3c0.1,0.1,0.1,0.1,0.2,0.2
	c1.2,1.2,2.9,1.7,4.5,1.6l1.1,9.1l-0.7,1.9c-0.8,0.3-1.5,0.7-2.2,1.3c-1.1,1.1-1.8,2.5-1.8,4.1c0,1.1,0.3,2.1,0.8,3l-1.5,3.9
	c-2.3-0.7-4.9-0.4-7,0.9l-3.4-6.3l-24.6-45.8c0.5-0.2,1-0.5,1.4-0.8c2.5-2,2.9-5.7,0.9-8.3l20.5-19.1L844.6,948.9z M958.3,1133
	c0.2,0.3,0.4,0.6,0.6,0.9c1.6,2,4.2,2.6,6.5,1.9l24,41.4c-0.9,0.8-1.5,1.8-1.8,3l-72.4-27.3c0.6-1.2,0.8-2.6,0.5-4l5.1-1.9
	L958.3,1133z M795.6,1085c0.1,0.1,0.1,0.1,0.2,0.2c0.4,0.4,0.9,0.7,1.4,1l-1.3,2.9c-0.7-0.5-1.4-0.9-2.1-1.2l1.3-3.5
	C795.2,1084.5,795.4,1084.8,795.6,1085z M812.5,1114.7l-25,7.7c-0.4-1.1-1-2.2-1.9-3.1c-0.7-0.7-1.5-1.3-2.4-1.7l6.2-13.7
	c2.2,0.3,4.5-0.3,6.4-1.8c1.1-0.9,1.9-2,2.4-3.2l6.3,1.8l7.3,2.1l3.1,5.4c-0.3,0.2-0.6,0.4-0.9,0.7l0,0
	C812.6,1110.5,812,1112.7,812.5,1114.7z M789.1,1103.9l-6.2,13.5c-3-1.3-6.5-0.7-9,1.7l0,0c-1.1,1.1-1.9,2.4-2.3,3.8l-1.8-0.4l16-20
	C786.7,1103.1,787.9,1103.6,789.1,1103.9z M771.4,1123.3c-0.1,0.5-0.2,1-0.2,1.6c0,0.7,0.1,1.5,0.2,2.2l-0.9,0.2
	c-0.1-1-0.5-2-1.2-2.8c-0.2-0.3-0.4-0.5-0.7-0.7l0.7-0.9L771.4,1123.3z M770.6,1127.8l1-0.3c0.1,0.2,0.1,0.4,0.2,0.6l-1.2,0.1
	C770.6,1128.1,770.6,1128,770.6,1127.8z M811.6,1102.2l-13-3.7c0.2-0.6,0.4-1.2,0.4-1.8l9.5,0.1L811.6,1102.2z M799.1,1096.2
	c0.1-2-0.5-4.1-1.8-5.8c-0.3-0.4-0.6-0.7-1-1l1.4-3c1.6,0.6,3.4,0.6,4.9-0.2l5.7,10.1L799.1,1096.2z M785.5,1089.1
	c-0.3,0.2-0.6,0.5-0.8,0.8l-4.9-5.4l-34.3-37.5c0.1-0.1,0.2-0.1,0.2-0.2c2.4-1.9,2.9-5.4,1.2-7.9l4.9-4c1.6,1.6,3.9,2.2,6,1.5
	l28.1,52.3C785.7,1088.9,785.6,1089,785.5,1089.1z M744.9,1047.3l39.3,43c-0.8,1-1.3,2.1-1.6,3.3l-42.3-14.3c0.9-2,0.7-4.4-0.8-6.1
	c-0.9-1.1-2.2-1.9-3.6-2.1l4.6-23C742,1048.3,743.6,1048.1,744.9,1047.3z M812.4,1102.4l-3.2-5.7l2.5,0l2.3,6.1L812.4,1102.4z
	 M751.3,1034.6l-4.9,3.9c-2-2.5-5.7-2.9-8.3-0.9c-1.4,1.1-2.2,2.8-2.2,4.5l-11.2-1.2l-25.5-2.7c0.1-0.4,0.1-0.8,0.1-1.2l50.7-4.6
	C750.4,1033.2,750.8,1033.9,751.3,1034.6z M738.7,1081.4c0.6-0.5,1.1-1,1.4-1.7l42.4,14.3c-0.4,2.3,0.1,4.8,1.7,6.8
	c0.3,0.4,0.7,0.8,1.1,1.1l-16.1,20.2l-10-2.5l-21.8-37.6C737.8,1082,738.3,1081.7,738.7,1081.4z M768.8,1122.7l-0.6,0.7
	c-2-1.5-4.8-1.6-6.9,0l-1.7-3L768.8,1122.7z M787.7,1122.9l25-7.7c0.3,0.8,0.7,1.5,1.3,2.1c0.1,0.1,0.1,0.1,0.2,0.2
	c1.1,1,2.5,1.6,3.9,1.6c0.2,0,0.4,0,0.6,0l0.7,6.3l-31.7,1.9C788.1,1125.8,788.1,1124.3,787.7,1122.9z M815.5,1108l-2.8-5l1.5,0.4
	l1.7,4.4C815.7,1107.9,815.6,1108,815.5,1108z M913.2,1097.5c0.1,0.8,0.4,1.6,0.9,2.3l-28.1,18.4c-0.1-0.2-0.2-0.4-0.4-0.5
	c-2-2.5-5.7-2.9-8.3-0.9c-1.2,0.9-1.9,2.2-2.1,3.6l-45.8-13l-14.9-4.2l-2.4-6.3l48.8,0.3L913.2,1097.5z M798.6,1075.2l0.2-0.6
	l0.1,0.6C798.8,1075.1,798.7,1075.2,798.6,1075.2z M799.1,1072.4l-1-8.1c0.3,0,0.6-0.1,0.9-0.2l1.6,4.2L799.1,1072.4z M699.3,1038.8
	l36.8,3.9c0.1,1.2,0.5,2.3,1.3,3.3c0.8,0.9,1.7,1.6,2.8,1.9l-3.9,19.3l-0.8,3.8c-1.5-0.1-3,0.3-4.2,1.3c-0.4,0.3-0.8,0.7-1.1,1.1
	l-33.4-30.4C698.1,1041.8,698.9,1040.3,699.3,1038.8z M770.6,1128.8l1.4-0.1c0.4,0.8,0.9,1.5,1.5,2.2c0.1,0.1,0.2,0.2,0.3,0.3
	c1,1,2.2,1.7,3.6,2l-1.4,5.6l-7.2-6.3C769.8,1131.5,770.5,1130.2,770.6,1128.8z M819.9,1125.4l-0.7-6.3c1.2-0.2,2.2-0.7,3.1-1.5
	c1.1-1.1,1.8-2.5,1.8-4.1c0-1.6-0.5-3.1-1.6-4.2c-1.6-1.7-4-2.2-6.1-1.5l-1.5-4l60.4,17.2c0,0.4,0,0.9,0,1.3l-49.6,2.9L819.9,1125.4
	z M884.3,1126.3l20.8,20.7c-1.4,2.1-1.3,4.9,0.3,6.9c0.6,0.7,1.3,1.3,2.2,1.7l-6.5,18.9l-16.7,48.1c-0.9-0.2-1.7-0.3-2.6-0.3l-1-95
	C882,1127.3,883.2,1127,884.3,1126.3z M888.7,1225.3c-1-1.3-2.4-2.2-3.8-2.7l5-14.3l18.3-52.7c1.9,0.6,4,0.4,5.6-1
	c0.5-0.4,1-0.9,1.3-1.5l72.5,27.3c-0.2,1.2,0,2.4,0.5,3.5l-98.1,43.3C889.6,1226.7,889.2,1226,888.7,1225.3z M910.3,1144.3
	c-1.4-0.1-2.8,0.3-4,1.3c-0.3,0.3-0.6,0.6-0.9,0.9l-20.7-20.6c0,0,0,0,0,0c2.2-1.8,2.8-4.9,1.5-7.3l28.2-18.4c0,0,0,0,0,0
	c0.8,1,1.8,1.6,3,2l-4.1,24.8L910.3,1144.3z M808.8,1096.3l-5.9-10.4c0.3-0.2,0.6-0.4,0.9-0.7c1.1-1,1.7-2.4,1.8-3.8l5.7,14.9
	L808.8,1096.3z M800,1075c-0.2,0-0.4,0-0.6,0l-0.2-1.6l1.7-4.5l2.9,7.6C802.8,1075.6,801.4,1075.1,800,1075z M760.9,1123.7
	c-0.2,0.2-0.5,0.4-0.6,0.7l-4.7-5l3.4,0.8L760.9,1123.7z M777.9,1133.3c0.5,0.1,1,0.2,1.5,0.2c1.2,0,2.3-0.2,3.4-0.6l8.6,19.4
	l-15-13.1L777.9,1133.3z M783.3,1132.7c0.8-0.4,1.5-0.9,2.1-1.5c1-1,1.7-2.1,2.2-3.4l31.9-1.9l6.7,56.7l-33.8-29.5L783.3,1132.7z
	 M992.8,1187.4c1.5,0.1,3-0.3,4.2-1.3c0.3-0.3,0.6-0.5,0.9-0.8l6.6,3.5l11.3,6c-1,2.7-0.6,5.8,1.3,8.1c0.8,1.1,1.9,1.8,3.1,2.4
	l-30.5,79.2c-0.5-0.2-1.1-0.2-1.6-0.2l1.2-25.2L992.8,1187.4z M1017.3,1192.2c-0.5,0.6-1,1.3-1.3,2.1l-9.1-4.8l-8.7-4.6
	c1.4-2.1,1.4-4.9-0.3-7c-2-2.4-5.5-2.9-8-1.1l-20.5-35.3l-3.4-5.9c0.2-0.1,0.4-0.2,0.5-0.3L1017.3,1192.2z M958.2,1127.7
	c-0.7,1.5-0.8,3.3-0.1,4.8l-42.5,15.8c-0.2-0.7-0.5-1.3-1-1.9c-1-1.2-2.3-1.9-3.8-2.1l2.9-17.4l4.1-24.6c1.6,0.3,3.4-0.1,4.8-1.2
	c0.1-0.1,0.1-0.1,0.2-0.2L958.2,1127.7z M915.6,1091.8c-0.1,0.1-0.2,0.1-0.3,0.2c-1.6,1.3-2.3,3.2-2.2,5l-101.2-0.7l-6.4-16.7
	c-0.1-0.5-0.3-1.1-0.6-1.5l-3.7-9.8l25.1-65.4l20.2-52.8c1.1,0.4,2.4,0.5,3.5,0.2L915.6,1091.8z M843.9,948.1c0,0.1,0.1,0.1,0.1,0.2
	c0.1,0.1,0.1,0.2,0.2,0.2l-84.1,78.3c-2.1-2.2-5.5-2.4-7.9-0.5c-1.7,1.4-2.4,3.5-2.1,5.5l-50.6,4.6c0-1.1-0.3-2.3-0.8-3.4
	L843.9,948.1z M696.4,1043.4C696.4,1043.3,696.4,1043.3,696.4,1043.4l3.1,2.7l30.4,27.7c-1.2,2.1-1.1,4.7,0.5,6.7
	c0.3,0.4,0.7,0.8,1.1,1.1l-1.5,2.4l-0.2,0.3c-1.9-1-4.3-0.8-6.1,0.5l-28.3-40.8C695.7,1043.8,696.1,1043.6,696.4,1043.4z
	 M731.2,1093.9c2.3-2.1,2.6-5.6,0.6-8c-0.4-0.5-0.9-1-1.5-1.3l1.7-2.7c1.5,0.9,3.3,1.1,4.9,0.5l21.6,37.2l-3.7-0.9L731.2,1093.9z
	 M754.6,1119.2l5.4,5.6c-1.1,1.6-1.4,3.7-0.6,5.6l-32.6,8.9l-124.7,33.9c-0.3-0.8-0.7-1.6-1.3-2.3c-0.1-0.1-0.1-0.1-0.2-0.2
	l61.1-69.3c2.3,1.8,5.6,1.7,7.7-0.3c0.8-0.7,1.3-1.6,1.6-2.6L754.6,1119.2z M659.7,1095.3c-0.3,1.3-0.3,2.6,0.2,3.8l-41,19.3
	c-0.2-0.5-0.6-0.9-0.9-1.3c-2.2-2.3-6-2.4-8.3-0.2l0,0c0,0,0,0,0,0l-57-54.1c0.5-0.5,0.8-1.1,1.1-1.8L659.7,1095.3z M536.3,982.6
	c-1.1,0.2-2.3,0.7-3.2,1.5l0,0c-0.6,0.5-1,1.2-1.3,1.9l-8.3-3.2l-50.4-19.7c0.2-0.6,0.3-1.1,0.3-1.8c0-1.6-0.5-3.1-1.6-4.2
	c-0.1-0.1-0.2-0.1-0.2-0.2l15.9-18.5l35.6-41.4c1.2,0.9,2.6,1.3,4,1.2L536.3,982.6z M525.9,886.6c-1.2,0.2-2.4,0.7-3.3,1.6l0,0
	c-0.3,0.3-0.6,0.7-0.8,1l-106.3-63.8c0.4-0.8,0.7-1.7,0.7-2.7c0-0.3,0-0.5-0.1-0.8l97.3-14.8c0.2,1.1,0.7,2.1,1.5,2.9
	c0.1,0.1,0.1,0.1,0.2,0.2c1.2,1.2,2.8,1.7,4.3,1.6L525.9,886.6z M404.5,823.6c0.2,1.1,0.7,2.2,1.5,3c0.1,0.1,0.1,0.1,0.2,0.2
	c0.6,0.6,1.4,1,2.2,1.3l-48.5,162.3c-0.8-0.5-1.7-0.7-2.7-0.7c-0.6,0-1.1,0.1-1.7,0.2l-27.9-63.3l33.3-97.2L404.5,823.6z
	 M360.4,828.9l-66,8.8c-0.2-1.1-0.7-2.2-1.5-3c-2.2-2.3-6-2.4-8.3-0.2l0,0c-0.9,0.8-1.4,1.9-1.7,2.9l-38-6.9l-22-50.5
	c2.9-1.4,5.1-4.2,5.5-7.6c0,0,0,0,0,0l141.3,12.5c-0.1,2.6,1.5,4.9,3.8,5.9L360.4,828.9z M371.1,781.2c-0.7,0.8-1.2,1.9-1.4,3.1
	l-141.3-12.5c0.2-3.9-1.9-7.5-5.2-9.2l37.6-76.7c0.5,0.2,1.1,0.4,1.7,0.5c1.9,0.2,3.7-0.5,4.9-1.7L371.1,781.2z M259.4,630.6
	c0.9,1.7,2.6,2.9,4.6,3.1c0.1,0,0.2,0,0.3,0l-1.1,40.7c-2.6,0-4.9,1.8-5.6,4.3l-6.2-1.6l-48.5-12.4c0.1-0.3,0.1-0.7,0.2-1
	c0.2-1.8-0.1-3.6-0.8-5.2L259.4,630.6z M187.2,654.8c-1.6,1.3-2.8,3-3.3,5.1L40.3,625.4c0-0.1,0.1-0.3,0.1-0.4
	c0.3-2.2-0.7-4.2-2.3-5.4l28.5-39.7l25.8-36c1.2,0.8,2.7,1.4,4.3,1.6c2.5,0.3,4.9-0.4,6.8-1.7L187.2,654.8z M98.4,526
	c-2.8-0.2-5.5,0.9-7.4,2.8L46,485.9L1.5,443.4c1.3-1.4,2.2-3.3,2.4-5.4c0.2-1.7-0.1-3.4-0.7-4.9l99.2-45.3c1.4,2.9,4.2,5,7.6,5.4
	c0,0,0,0,0,0L98.4,526z M104,376.9c-1.4,1.5-2.3,3.3-2.5,5.5c-0.2,1.7,0.1,3.4,0.7,4.9L3,432.6c-1.4-2.9-4.2-5-7.6-5.4
	c-0.6-0.1-1.2-0.1-1.7,0l-1.7-19l-13.4-149.9c1.2-0.2,2.4-0.7,3.3-1.5L104,376.9z M-9.8,228.4c-2.6-0.3-5,1.1-6.1,3.3l-77-33.9
	l-73-32.2c0.3-0.8,0.6-1.6,0.7-2.5c0.1-0.4,0.1-0.9,0.1-1.3l163-6.9c0.2,2.6,2.1,4.8,4.7,5.3L-9.8,228.4
	C-9.7,228.4-9.7,228.4-9.8,228.4z M-171.3,171c1.9-0.8,3.6-2.1,4.7-3.9l41.3,24.4l97.8,57.8c-0.3,0.6-0.6,1.3-0.7,2.1
	c-0.1,1.1,0.1,2.2,0.5,3.1l-91.3,45c-0.9-1.6-2.6-2.8-4.6-3.1c-0.9-0.1-1.7,0-2.5,0.2l-34.2-95.1L-171.3,171z M-21.5,246.3
	c-2.3-0.3-4.5,0.8-5.7,2.7l-139.1-82.3c0.1-0.2,0.2-0.4,0.3-0.5l40.5,17.9l109.5,48.3c-0.2,0.5-0.3,0.9-0.4,1.5
	c-0.3,2.2,0.7,4.3,2.4,5.6l-5.1,7.8C-19.8,246.6-20.6,246.4-21.5,246.3z M6.7,92.3c0.4-3.2-0.8-6.2-3-8.2l39.6-44.7
	c0.7,0.6,1.5,1,2.4,1.2l-11,58.7c0,0-0.1,0-0.1,0c-2.7-0.3-5.2,1.2-6.2,3.6L6.2,94.3C6.4,93.7,6.6,93,6.7,92.3z M28.3,200.6
	c-1.5,0.9-2.7,2.5-2.9,4.5c-0.2,1.4,0.2,2.8,0.9,3.9l-31.9,21.9c-0.8-1.1-2-1.9-3.5-2.3l7-39.3l5.2-28.9c0,0,0.1,0,0.1,0
	c1.2,0.1,2.3-0.1,3.3-0.6L28.3,200.6z M6.7,149.1c-0.7-0.4-1.4-0.6-2.2-0.7c-0.4,0-0.7,0-1.1,0l-5.2-47.7c3.4-0.5,6.3-2.7,7.7-5.9
	l8.9,3.4l13.2,5c-0.1,0.4-0.2,0.8-0.3,1.2c-0.3,2.3,0.8,4.5,2.6,5.7L6.7,149.1z M84.8,83.1c-1.1,0.9-1.9,2.3-2,3.8
	c-0.1,0.8,0,1.6,0.2,2.3L39.4,103c-0.7-1.9-2.3-3.3-4.3-3.8l11-58.7c0,0,0.1,0,0.1,0c1.6,0.2,3-0.2,4.2-1.1L84.8,83.1z M-54.7,40.2
	c1-0.9,1.6-2.2,1.8-3.6c0,0,0,0,0,0L41,35c0.1,1.5,0.8,2.9,1.8,3.9L3.2,83.6c-1.4-1.2-3.1-2-5.1-2.2c-3-0.4-5.9,0.7-7.9,2.7
	L-54.7,40.2z M-11.9,95.1c1.4,3,4.2,5.3,7.7,5.7c0.7,0.1,1.3,0.1,1.9,0l5.2,47.7c-2.6,0.4-4.7,2.5-5.1,5.2c0,0.2,0,0.5,0,0.7
	l-163,6.9c-0.1-1-0.3-1.9-0.6-2.8L-11.9,95.1z M-160.5,293.8c0-0.1,0.1-0.3,0.1-0.4c0.4-3.3-2-6.3-5.3-6.7c-0.3,0-0.6,0-0.8,0
	l-7.4-115.1c0.7-0.1,1.4-0.2,2.1-0.5l45.2,125.8c-1.7,0.7-3,2.1-3.5,3.9L-160.5,293.8z M-118.6,304.4c0.1-0.4,0.2-0.8,0.3-1.2
	c0.1-1.1-0.1-2.2-0.5-3.1l91.3-45c0,0.1,0.1,0.2,0.2,0.3l-57.3,39.2l-16.5,11.3c-1-1.3-2.4-2.2-4.1-2.4c-2.7-0.3-5.2,1.2-6.2,3.6
	L-118.6,304.4z M-102,314.1c1.1-0.9,1.9-2.3,2-3.8c0.2-1.4-0.2-2.8-0.9-3.9l37.9-25.9l36-24.6c1,1.3,2.4,2.2,4.1,2.4
	c0.3,0,0.7,0,1,0l6.4,71.3l8.7,97.6c-1.7,0.2-3.3,0.9-4.7,1.9L-102,314.1z M-7.9,446.3c0.3,0.1,0.6,0.1,1,0.2c3.1,0.4,6-0.7,8-2.8
	L42.2,483l48.4,46.2c-1.3,1.4-2.2,3.3-2.4,5.4c-0.2,1.9,0.1,3.8,0.9,5.4l-120.4,63.5l-11.1,5.8c-1.2-2.2-3.3-3.9-5.8-4.6L-7.9,446.3
	z M-58,620.8c1.5,1.6,3.4,2.6,5.7,3l-4.9,41.3c-3.2-0.2-6,2.1-6.4,5.3c-0.1,1.1,0,2.1,0.5,3.1l-116.7,56.5c-0.2-0.3-0.4-0.6-0.6-0.9
	L-58,620.8z M-179.6,730.5c0-0.1-0.1-0.1-0.1-0.2L-63,673.8c0.5,0.9,1.3,1.7,2.2,2.3l-6.5,12c-0.6-0.3-1.2-0.5-1.9-0.6
	c-3.3-0.4-6.3,2-6.7,5.3c-0.1,0.8,0,1.6,0.2,2.4L-179.6,730.5z M-67.5,699c1.3-0.6,2.3-1.6,2.9-2.9l98.7,42
	c-0.2,0.4-0.3,0.9-0.3,1.4c-0.3,2.6,1.1,5,3.4,6.1L19,788.4l-23.8,56c-0.4-0.2-0.9-0.3-1.4-0.3c-0.9-0.1-1.9,0-2.7,0.3L-67.5,699z
	 M-1.5,852.7c0.3-0.6,0.5-1.2,0.6-1.9c0.2-1.8-0.4-3.5-1.6-4.8l9.4-9.5l58.7-59.3c0.9,0.8,2,1.4,3.3,1.5c0.4,0,0.7,0,1.1,0l8.6,78.8
	l3.9,35.9c-1.8,0.3-3.3,1.3-4.2,2.8L-1.5,852.7z M87.5,903.6c0.9-0.9,1.6-2.2,1.8-3.6c0.2-1.7-0.4-3.4-1.4-4.6l124-117.3
	c1.4,1.4,3.3,2.4,5.4,2.7l-15.1,127l-12.1,101.4c-2.2-0.2-4.3,0.9-5.5,2.7L87.5,903.6z M191.5,1021c2.1-0.7,3.8-2.6,4.1-5
	c0,0,0,0,0-0.1l4.5-1.4l89.1-28.7l14.1,12.7L263,1136.9c-0.4-0.1-0.9-0.2-1.3-0.3c-2-0.2-3.9,0.2-5.6,1L191.5,1021z M272.4,1195.5
	c-0.9-0.7-2-1.2-3.2-1.4c-0.4-0.1-0.9-0.1-1.3,0l-5.7-38.3c4.1-0.7,7.4-4.1,8-8.4c0.2-1.7,0-3.3-0.6-4.7l81.8-35.2
	c0.3,0.6,0.7,1.1,1.1,1.6L272.4,1195.5z M354.4,1099.4c-1.9,0.8-3.3,2.6-3.6,4.8c-0.1,1,0,2,0.3,2.8l-78.2,33.6l-3.7,1.6
	c-1.1-2.4-3.2-4.3-5.8-5.2L303.8,999l19.3,17.3L354.4,1099.4z M323.6,1016.1l-10.6-28c2.6-1.1,4.7-3.3,5.6-6.1l32.6,12.5
	c-0.1,0.3-0.1,0.6-0.1,1c0,1.6,0.5,3.1,1.6,4.2c0.1,0.1,0.1,0.1,0.2,0.2c1,1,2.4,1.6,3.8,1.6l-7.9,30.9c-0.3-0.1-0.7-0.1-1.1-0.1
	c-1.6,0-3.1,0.5-4.2,1.6c0,0-0.1,0.1-0.1,0.1L323.6,1016.1z M352.5,1041.4c0.7-0.9,1-2,1.1-3.2c0-0.7-0.1-1.3-0.3-1.9l5.7-2.1
	l47.8-17.8c0.3,0.6,0.6,1.2,1.2,1.8c0.1,0.1,0.1,0.1,0.2,0.2c1.2,1.1,2.7,1.7,4.2,1.6l0.3,5.6l3.5,59.4c-1.3,0.1-2.5,0.6-3.5,1.6
	l0,0c-0.2,0.2-0.3,0.3-0.4,0.5L352.5,1041.4z M422.2,1092.6c0.1-0.4,0.2-0.7,0.2-1.1l134.9,9.1c0,1.5,0.5,3,1.6,4.2
	c0.1,0.1,0.1,0.1,0.2,0.2c1.1,1,2.5,1.6,3.9,1.6c0.8,0,1.6-0.1,2.4-0.5l19.3,41.1c-0.5,0.3-0.9,0.5-1.3,0.9c-0.6,0.6-1.1,1.3-1.4,2
	L422.2,1092.6z M589.9,1157.7c0.6-0.3,1.1-0.6,1.6-1.1c2.3-2.2,2.4-6,0.2-8.3c-0.1-0.1-0.2-0.2-0.3-0.3l18.7-22.3
	c0.5,0.4,1,0.6,1.5,0.8l-13.7,42.7c-0.5-0.1-0.9-0.2-1.4-0.2c-0.7,0-1.4,0.1-2.1,0.3L589.9,1157.7z M738.4,1308.9
	c-0.2-0.2-0.3-0.5-0.5-0.7c-0.7-0.8-1.6-1.3-2.6-1.6l8.5-34.6l32.5-132.3l15.6,13.6l3.6,8l36,81c-0.5,0.3-1,0.6-1.4,1
	c-1.1,1.1-1.8,2.5-1.8,4.1c0,1.1,0.3,2.2,0.8,3.1L738.4,1308.9z M833.2,1241.9c-0.4,0.1-0.8,0.2-1.2,0.3l-39.1-88l33.4,29.1
	L833.2,1241.9z M820,1125.9l55.3-3.2c0.2,0.8,0.6,1.7,1.1,2.4c1,1.2,2.4,1.9,3.8,2.1l0.3,28.5l0.7,66.6c-1.5,0.2-3.1,0.8-4.4,1.8
	c-0.6,0.5-1,1-1.5,1.5l-48.7-42.5L820,1125.9z M889.1,1235.3c1.5-2.2,1.8-4.9,1-7.4l6.1-2.7l92.1-40.6c0.1,0.2,0.3,0.5,0.5,0.7
	c0.9,1.1,2.2,1.8,3.5,2.1l-3.1,63.9l-1.6,33c-1.1,0.1-2.3,0.5-3.2,1.3c-0.8,0.6-1.4,1.4-1.7,2.3L889.1,1235.3z M989.5,1295.8
	c0.8-0.2,1.6-0.6,2.3-1.1c0.7-0.6,1.3-1.3,1.6-2.1l15.5,3.9l82.7,21c-0.1,1.4,0.3,2.8,1.3,4c0.1,0.1,0.2,0.2,0.3,0.3l-43.2,41.5
	l-23.4,22.5c-1.7-1.7-4.3-2.2-6.5-1.2L989.5,1295.8z M1027.8,1392.1c0.7-1.9,0.5-4.1-0.9-5.8c0,0,0,0-0.1-0.1l66.7-64.1
	c1.2,1.1,2.7,1.6,4.2,1.5l18,82.3l1.1,5c-0.5,0.2-1.1,0.5-1.5,0.9c-1.2,0.9-1.9,2.2-2.1,3.6L1027.8,1392.1z M1118.3,1422.3
	c1.5,0.2,3.1-0.2,4.4-1.3c0.4-0.3,0.7-0.6,1-1l45.3,22.4c-0.9,2.6-0.4,5.6,1.4,7.9c0.5,0.6,1.1,1.2,1.7,1.6l-61.7,96.1
	c-0.8-0.5-1.7-0.7-2.6-0.8L1118.3,1422.3z M1131.4,1609.3c-1.7-2.1-4.5-2.7-6.8-1.7l-15.7-48.7c0.8-0.2,1.6-0.6,2.4-1.1
	c1.1-0.9,1.8-2.2,2.1-3.5l87.8,0.9c0.1,0.9,0.5,1.8,1.1,2.5l-70.6,51.9C1131.5,1609.5,1131.4,1609.4,1131.4,1609.3z"/>
</svg>
